%YAML 1.1
%TAG !u! tag:unity3d.com,2011:
--- !u!319 &31900000
AvatarMask:
  m_ObjectHideFlags: 0
  m_CorrespondingSourceObject: {fileID: 0}
  m_PrefabInstance: {fileID: 0}
  m_PrefabAsset: {fileID: 0}
  m_Name: Apuntar
  m_Mask: 01000000010000000100000000000000000000000100000001000000010000000100000001000000010000000100000001000000
  m_Elements:
  - m_Path: 
    m_Weight: 1
  - m_Path: Armature
    m_Weight: 1
  - m_Path: Armature/Hips
    m_Weight: 1
  - m_Path: Armature/Hips/LeftUpLeg
    m_Weight: 1
  - m_Path: Armature/Hips/LeftUpLeg/LeftLeg
    m_Weight: 1
  - m_Path: Armature/Hips/LeftUpLeg/LeftLeg/LeftFoot
    m_Weight: 1
  - m_Path: Armature/Hips/LeftUpLeg/LeftLeg/LeftFoot/LeftToeBase
    m_Weight: 1
  - m_Path: Armature/Hips/LeftUpLeg/LeftLeg/LeftFoot/LeftToeBase/LeftToe_End
    m_Weight: 1
  - m_Path: Armature/Hips/LeftUpLeg/LeftLeg/LeftFoot/LeftToeBase/LeftToe_End/LeftToe_End_end
    m_Weight: 1
  - m_Path: Armature/Hips/RightUpLeg
    m_Weight: 1
  - m_Path: Armature/Hips/RightUpLeg/RightLeg
    m_Weight: 1
  - m_Path: Armature/Hips/RightUpLeg/RightLeg/RightFoot
    m_Weight: 1
  - m_Path: Armature/Hips/RightUpLeg/RightLeg/RightFoot/RightToeBase
    m_Weight: 1
  - m_Path: Armature/Hips/RightUpLeg/RightLeg/RightFoot/RightToeBase/RightToe_End
    m_Weight: 1
  - m_Path: Armature/Hips/RightUpLeg/RightLeg/RightFoot/RightToeBase/RightToe_End/RightToe_End_end
    m_Weight: 1
  - m_Path: Armature/Hips/Spine
    m_Weight: 1
  - m_Path: Armature/Hips/Spine/Spine1
    m_Weight: 1
  - m_Path: Armature/Hips/Spine/Spine1/Spine2
    m_Weight: 1
  - m_Path: Armature/Hips/Spine/Spine1/Spine2/LeftShoulder
    m_Weight: 1
  - m_Path: Armature/Hips/Spine/Spine1/Spine2/LeftShoulder/LeftArm
    m_Weight: 1
  - m_Path: Armature/Hips/Spine/Spine1/Spine2/LeftShoulder/LeftArm/LeftForeArm
    m_Weight: 1
  - m_Path: Armature/Hips/Spine/Spine1/Spine2/LeftShoulder/LeftArm/LeftForeArm/LeftHand
    m_Weight: 1
  - m_Path: Armature/Hips/Spine/Spine1/Spine2/LeftShoulder/LeftArm/LeftForeArm/LeftHand/LeftHandIndex1
    m_Weight: 1
  - m_Path: Armature/Hips/Spine/Spine1/Spine2/LeftShoulder/LeftArm/LeftForeArm/LeftHand/LeftHandIndex1/LeftHandIndex2
    m_Weight: 1
  - m_Path: Armature/Hips/Spine/Spine1/Spine2/LeftShoulder/LeftArm/LeftForeArm/LeftHand/LeftHandIndex1/LeftHandIndex2/LeftHandIndex3
    m_Weight: 1
  - m_Path: Armature/Hips/Spine/Spine1/Spine2/LeftShoulder/LeftArm/LeftForeArm/LeftHand/LeftHandIndex1/LeftHandIndex2/LeftHandIndex3/LeftHandIndex4
    m_Weight: 1
  - m_Path: Armature/Hips/Spine/Spine1/Spine2/LeftShoulder/LeftArm/LeftForeArm/LeftHand/LeftHandIndex1/LeftHandIndex2/LeftHandIndex3/LeftHandIndex4/LeftHandIndex4_end
    m_Weight: 1
  - m_Path: Armature/Hips/Spine/Spine1/Spine2/LeftShoulder/LeftArm/LeftForeArm/LeftHand/LeftHandMiddle1
    m_Weight: 1
  - m_Path: Armature/Hips/Spine/Spine1/Spine2/LeftShoulder/LeftArm/LeftForeArm/LeftHand/LeftHandMiddle1/LeftHandMiddle2
    m_Weight: 1
  - m_Path: Armature/Hips/Spine/Spine1/Spine2/LeftShoulder/LeftArm/LeftForeArm/LeftHand/LeftHandMiddle1/LeftHandMiddle2/LeftHandMiddle3
    m_Weight: 1
  - m_Path: Armature/Hips/Spine/Spine1/Spine2/LeftShoulder/LeftArm/LeftForeArm/LeftHand/LeftHandMiddle1/LeftHandMiddle2/LeftHandMiddle3/LeftHandMiddle4
    m_Weight: 1
  - m_Path: Armature/Hips/Spine/Spine1/Spine2/LeftShoulder/LeftArm/LeftForeArm/LeftHand/LeftHandMiddle1/LeftHandMiddle2/LeftHandMiddle3/LeftHandMiddle4/LeftHandMiddle4_end
    m_Weight: 1
  - m_Path: Armature/Hips/Spine/Spine1/Spine2/LeftShoulder/LeftArm/LeftForeArm/LeftHand/LeftHandPinky1
    m_Weight: 1
  - m_Path: Armature/Hips/Spine/Spine1/Spine2/LeftShoulder/LeftArm/LeftForeArm/LeftHand/LeftHandPinky1/LeftHandPinky2
    m_Weight: 1
  - m_Path: Armature/Hips/Spine/Spine1/Spine2/LeftShoulder/LeftArm/LeftForeArm/LeftHand/LeftHandPinky1/LeftHandPinky2/LeftHandPinky3
    m_Weight: 1
  - m_Path: Armature/Hips/Spine/Spine1/Spine2/LeftShoulder/LeftArm/LeftForeArm/LeftHand/LeftHandPinky1/LeftHandPinky2/LeftHandPinky3/LeftHandPinky4
    m_Weight: 1
  - m_Path: Armature/Hips/Spine/Spine1/Spine2/LeftShoulder/LeftArm/LeftForeArm/LeftHand/LeftHandPinky1/LeftHandPinky2/LeftHandPinky3/LeftHandPinky4/LeftHandPinky4_end
    m_Weight: 1
  - m_Path: Armature/Hips/Spine/Spine1/Spine2/LeftShoulder/LeftArm/LeftForeArm/LeftHand/LeftHandRing1
    m_Weight: 1
  - m_Path: Armature/Hips/Spine/Spine1/Spine2/LeftShoulder/LeftArm/LeftForeArm/LeftHand/LeftHandRing1/LeftHandRing2
    m_Weight: 1
  - m_Path: Armature/Hips/Spine/Spine1/Spine2/LeftShoulder/LeftArm/LeftForeArm/LeftHand/LeftHandRing1/LeftHandRing2/LeftHandRing3
    m_Weight: 1
  - m_Path: Armature/Hips/Spine/Spine1/Spine2/LeftShoulder/LeftArm/LeftForeArm/LeftHand/LeftHandRing1/LeftHandRing2/LeftHandRing3/LeftHandRing4
    m_Weight: 1
  - m_Path: Armature/Hips/Spine/Spine1/Spine2/LeftShoulder/LeftArm/LeftForeArm/LeftHand/LeftHandRing1/LeftHandRing2/LeftHandRing3/LeftHandRing4/LeftHandRing4_end
    m_Weight: 1
  - m_Path: Armature/Hips/Spine/Spine1/Spine2/LeftShoulder/LeftArm/LeftForeArm/LeftHand/LeftHandThumb1
    m_Weight: 1
  - m_Path: Armature/Hips/Spine/Spine1/Spine2/LeftShoulder/LeftArm/LeftForeArm/LeftHand/LeftHandThumb1/LeftHandThumb2
    m_Weight: 1
  - m_Path: Armature/Hips/Spine/Spine1/Spine2/LeftShoulder/LeftArm/LeftForeArm/LeftHand/LeftHandThumb1/LeftHandThumb2/LeftHandThumb3
    m_Weight: 1
  - m_Path: Armature/Hips/Spine/Spine1/Spine2/LeftShoulder/LeftArm/LeftForeArm/LeftHand/LeftHandThumb1/LeftHandThumb2/LeftHandThumb3/LeftHandThumb4
    m_Weight: 1
  - m_Path: Armature/Hips/Spine/Spine1/Spine2/LeftShoulder/LeftArm/LeftForeArm/LeftHand/LeftHandThumb1/LeftHandThumb2/LeftHandThumb3/LeftHandThumb4/LeftHandThumb4_end
    m_Weight: 1
  - m_Path: Armature/Hips/Spine/Spine1/Spine2/Neck
    m_Weight: 1
  - m_Path: Armature/Hips/Spine/Spine1/Spine2/Neck/Head
    m_Weight: 1
  - m_Path: Armature/Hips/Spine/Spine1/Spine2/Neck/Head/HeadTop_End
    m_Weight: 1
  - m_Path: Armature/Hips/Spine/Spine1/Spine2/Neck/Head/HeadTop_End/HeadTop_End_end
    m_Weight: 1
  - m_Path: Armature/Hips/Spine/Spine1/Spine2/Neck/Head/LeftEye
    m_Weight: 1
  - m_Path: Armature/Hips/Spine/Spine1/Spine2/Neck/Head/LeftEye/LeftEye_end
    m_Weight: 1
  - m_Path: Armature/Hips/Spine/Spine1/Spine2/Neck/Head/RightEye
    m_Weight: 1
  - m_Path: Armature/Hips/Spine/Spine1/Spine2/Neck/Head/RightEye/RightEye_end
    m_Weight: 1
  - m_Path: Armature/Hips/Spine/Spine1/Spine2/RightShoulder
    m_Weight: 1
  - m_Path: Armature/Hips/Spine/Spine1/Spine2/RightShoulder/RightArm
    m_Weight: 1
  - m_Path: Armature/Hips/Spine/Spine1/Spine2/RightShoulder/RightArm/RightForeArm
    m_Weight: 1
  - m_Path: Armature/Hips/Spine/Spine1/Spine2/RightShoulder/RightArm/RightForeArm/RightHand
    m_Weight: 1
  - m_Path: Armature/Hips/Spine/Spine1/Spine2/RightShoulder/RightArm/RightForeArm/RightHand/RightHandIndex1
    m_Weight: 1
  - m_Path: Armature/Hips/Spine/Spine1/Spine2/RightShoulder/RightArm/RightForeArm/RightHand/RightHandIndex1/RightHandIndex2
    m_Weight: 1
  - m_Path: Armature/Hips/Spine/Spine1/Spine2/RightShoulder/RightArm/RightForeArm/RightHand/RightHandIndex1/RightHandIndex2/RightHandIndex3
    m_Weight: 1
  - m_Path: Armature/Hips/Spine/Spine1/Spine2/RightShoulder/RightArm/RightForeArm/RightHand/RightHandIndex1/RightHandIndex2/RightHandIndex3/RightHandIndex4
    m_Weight: 1
  - m_Path: Armature/Hips/Spine/Spine1/Spine2/RightShoulder/RightArm/RightForeArm/RightHand/RightHandIndex1/RightHandIndex2/RightHandIndex3/RightHandIndex4/RightHandIndex4_end
    m_Weight: 1
  - m_Path: Armature/Hips/Spine/Spine1/Spine2/RightShoulder/RightArm/RightForeArm/RightHand/RightHandMiddle1
    m_Weight: 1
  - m_Path: Armature/Hips/Spine/Spine1/Spine2/RightShoulder/RightArm/RightForeArm/RightHand/RightHandMiddle1/RightHandMiddle2
    m_Weight: 1
  - m_Path: Armature/Hips/Spine/Spine1/Spine2/RightShoulder/RightArm/RightForeArm/RightHand/RightHandMiddle1/RightHandMiddle2/RightHandMiddle3
    m_Weight: 1
  - m_Path: Armature/Hips/Spine/Spine1/Spine2/RightShoulder/RightArm/RightForeArm/RightHand/RightHandMiddle1/RightHandMiddle2/RightHandMiddle3/RightHandMiddle4
    m_Weight: 1
  - m_Path: Armature/Hips/Spine/Spine1/Spine2/RightShoulder/RightArm/RightForeArm/RightHand/RightHandMiddle1/RightHandMiddle2/RightHandMiddle3/RightHandMiddle4/RightHandMiddle4_end
    m_Weight: 1
  - m_Path: Armature/Hips/Spine/Spine1/Spine2/RightShoulder/RightArm/RightForeArm/RightHand/RightHandPinky1
    m_Weight: 1
  - m_Path: Armature/Hips/Spine/Spine1/Spine2/RightShoulder/RightArm/RightForeArm/RightHand/RightHandPinky1/RightHandPinky2
    m_Weight: 1
  - m_Path: Armature/Hips/Spine/Spine1/Spine2/RightShoulder/RightArm/RightForeArm/RightHand/RightHandPinky1/RightHandPinky2/RightHandPinky3
    m_Weight: 1
  - m_Path: Armature/Hips/Spine/Spine1/Spine2/RightShoulder/RightArm/RightForeArm/RightHand/RightHandPinky1/RightHandPinky2/RightHandPinky3/RightHandPinky4
    m_Weight: 1
  - m_Path: Armature/Hips/Spine/Spine1/Spine2/RightShoulder/RightArm/RightForeArm/RightHand/RightHandPinky1/RightHandPinky2/RightHandPinky3/RightHandPinky4/RightHandPinky4_end
    m_Weight: 1
  - m_Path: Armature/Hips/Spine/Spine1/Spine2/RightShoulder/RightArm/RightForeArm/RightHand/RightHandRing1
    m_Weight: 1
  - m_Path: Armature/Hips/Spine/Spine1/Spine2/RightShoulder/RightArm/RightForeArm/RightHand/RightHandRing1/RightHandRing2
    m_Weight: 1
  - m_Path: Armature/Hips/Spine/Spine1/Spine2/RightShoulder/RightArm/RightForeArm/RightHand/RightHandRing1/RightHandRing2/RightHandRing3
    m_Weight: 1
  - m_Path: Armature/Hips/Spine/Spine1/Spine2/RightShoulder/RightArm/RightForeArm/RightHand/RightHandRing1/RightHandRing2/RightHandRing3/RightHandRing4
    m_Weight: 1
  - m_Path: Armature/Hips/Spine/Spine1/Spine2/RightShoulder/RightArm/RightForeArm/RightHand/RightHandRing1/RightHandRing2/RightHandRing3/RightHandRing4/RightHandRing4_end
    m_Weight: 1
  - m_Path: Armature/Hips/Spine/Spine1/Spine2/RightShoulder/RightArm/RightForeArm/RightHand/RightHandThumb1
    m_Weight: 1
  - m_Path: Armature/Hips/Spine/Spine1/Spine2/RightShoulder/RightArm/RightForeArm/RightHand/RightHandThumb1/RightHandThumb2
    m_Weight: 1
  - m_Path: Armature/Hips/Spine/Spine1/Spine2/RightShoulder/RightArm/RightForeArm/RightHand/RightHandThumb1/RightHandThumb2/RightHandThumb3
    m_Weight: 1
  - m_Path: Armature/Hips/Spine/Spine1/Spine2/RightShoulder/RightArm/RightForeArm/RightHand/RightHandThumb1/RightHandThumb2/RightHandThumb3/RightHandThumb4
    m_Weight: 1
  - m_Path: Armature/Hips/Spine/Spine1/Spine2/RightShoulder/RightArm/RightForeArm/RightHand/RightHandThumb1/RightHandThumb2/RightHandThumb3/RightHandThumb4/RightHandThumb4_end
    m_Weight: 1
  - m_Path: EyeLeft
    m_Weight: 1
  - m_Path: EyeRight
    m_Weight: 1
  - m_Path: Wolf3D_Body
    m_Weight: 1
  - m_Path: Wolf3D_Glasses
    m_Weight: 1
  - m_Path: Wolf3D_Hair
    m_Weight: 1
  - m_Path: Wolf3D_Head
    m_Weight: 1
  - m_Path: Wolf3D_Outfit_Bottom
    m_Weight: 1
  - m_Path: Wolf3D_Outfit_Footwear
    m_Weight: 1
  - m_Path: Wolf3D_Outfit_Top
    m_Weight: 1
  - m_Path: Wolf3D_Teeth
    m_Weight: 1
